EESchema Schematic File Version 4
LIBS:MiniSynth-cache
EELAYER 26 0
EELAYER END
$Descr A4 8268 11693 portrait
encoding utf-8
Sheet 1 1
Title "MiniSynth"
Date "2019-10-28"
Rev "V0"
Comp "Space"
Comment1 ""
Comment2 ""
Comment3 ""
Comment4 ""
$EndDescr
$Comp
L power:+9V #PWR03
U 1 1 5DB749B2
P 2700 1700
F 0 "#PWR03" H 2700 1550 50  0001 C CNN
F 1 "+9V" H 2715 1873 50  0000 C CNN
F 2 "" H 2700 1700 50  0001 C CNN
F 3 "" H 2700 1700 50  0001 C CNN
	1    2700 1700
	1    0    0    -1  
$EndComp
$Comp
L power:GND #PWR04
U 1 1 5DB749E6
P 2700 3150
F 0 "#PWR04" H 2700 2900 50  0001 C CNN
F 1 "GND" H 2705 2977 50  0000 C CNN
F 2 "" H 2700 3150 50  0001 C CNN
F 3 "" H 2700 3150 50  0001 C CNN
	1    2700 3150
	1    0    0    -1  
$EndComp
$Comp
L Device:R R1
U 1 1 5DB74C29
P 4300 2500
F 0 "R1" V 4507 2500 50  0000 C CNN
F 1 "1.8 kOhm" V 4416 2500 50  0000 C CNN
F 2 "Resistor_THT:R_Axial_DIN0207_L6.3mm_D2.5mm_P10.16mm_Horizontal" V 4230 2500 50  0001 C CNN
F 3 "~" H 4300 2500 50  0001 C CNN
	1    4300 2500
	0    -1   -1   0   
$EndComp
$Comp
L Device:R R2.1
U 1 1 5DB74C8F
P 4300 2700
F 0 "R2.1" V 4400 2700 50  0000 C CNN
F 1 "8.2 kOhm" V 4500 2700 50  0000 C CNN
F 2 "Resistor_THT:R_Axial_DIN0207_L6.3mm_D2.5mm_P10.16mm_Horizontal" V 4230 2700 50  0001 C CNN
F 3 "~" H 4300 2700 50  0001 C CNN
	1    4300 2700
	0    1    1    0   
$EndComp
$Comp
L Device:R_POT RV1
U 1 1 5DB751B2
P 4850 2950
F 0 "RV1" V 4650 2950 50  0000 C CNN
F 1 "0-25 kOhm" V 4750 2950 50  0000 C CNN
F 2 "custom_footprints:ACP 6-L" H 4850 2950 50  0001 C CNN
F 3 "~" H 4850 2950 50  0001 C CNN
	1    4850 2950
	1    0    0    -1  
$EndComp
$Comp
L pspice:C C1
U 1 1 5DB753F5
P 1950 2500
F 0 "C1" V 1700 2500 50  0000 C CNN
F 1 "10 nF" V 1600 2500 50  0000 C CNN
F 2 "Capacitor_THT:C_Disc_D4.3mm_W1.9mm_P5.00mm" H 1950 2500 50  0001 C CNN
F 3 "~" H 1950 2500 50  0001 C CNN
	1    1950 2500
	0    -1   -1   0   
$EndComp
Wire Wire Line
	3200 2700 3500 2700
$Comp
L pspice:C C2
U 1 1 5DB75736
P 3100 3050
F 0 "C2" V 2900 3200 50  0000 C CNN
F 1 "100 nF" V 2900 2950 50  0000 C CNN
F 2 "Capacitor_THT:C_Disc_D4.3mm_W1.9mm_P5.00mm" H 3100 3050 50  0001 C CNN
F 3 "~" H 3100 3050 50  0001 C CNN
	1    3100 3050
	0    -1   -1   0   
$EndComp
Wire Wire Line
	3350 3050 3500 3050
$Comp
L power:GND #PWR01
U 1 1 5DC047D1
P 1700 2500
F 0 "#PWR01" H 1700 2250 50  0001 C CNN
F 1 "GND" V 1850 2450 50  0000 C CNN
F 2 "" H 1700 2500 50  0001 C CNN
F 3 "" H 1700 2500 50  0001 C CNN
	1    1700 2500
	0    1    1    0   
$EndComp
$Comp
L power:+9V #PWR02
U 1 1 5DC0527D
P 2200 2700
F 0 "#PWR02" H 2200 2550 50  0001 C CNN
F 1 "+9V" V 2100 2700 50  0000 C CNN
F 2 "" H 2200 2700 50  0001 C CNN
F 3 "" H 2200 2700 50  0001 C CNN
	1    2200 2700
	0    -1   -1   0   
$EndComp
NoConn ~ 4850 2800
Wire Wire Line
	3500 2700 3500 3050
$Comp
L Connector:Screw_Terminal_01x02 J1
U 1 1 5DC1F844
P 4400 2100
F 0 "J1" H 4050 2100 50  0000 L CNN
F 1 "Screw_Terminal_01x02" H 3300 2000 50  0000 L CNN
F 2 "TerminalBlock:TerminalBlock_bornier-2_P5.08mm" H 4400 2100 50  0001 C CNN
F 3 "~" H 4400 2100 50  0001 C CNN
	1    4400 2100
	-1   0    0    1   
$EndComp
$Comp
L Device:Speaker LS1
U 1 1 5DB75EEF
P 3650 1600
F 0 "LS1" V 3950 1600 50  0000 R CNN
F 1 "Speaker" V 3850 1700 50  0000 R CNN
F 2 "TerminalBlock:TerminalBlock_bornier-2_P5.08mm" H 3650 1400 50  0001 C CNN
F 3 "~" H 3640 1550 50  0001 C CNN
	1    3650 1600
	0    -1   -1   0   
$EndComp
$Comp
L Timer:NE555 U1
U 1 1 5DB748F6
P 2700 2500
F 0 "U1" H 2450 2900 50  0000 C CNN
F 1 "NE555" H 2900 2900 50  0000 C CNN
F 2 "Package_DIP:DIP-8_W7.62mm" H 2700 2500 50  0001 C CNN
F 3 "http://www.ti.com/lit/ds/symlink/ne555.pdf" H 2700 2500 50  0001 C CNN
	1    2700 2500
	1    0    0    -1  
$EndComp
$Comp
L Transistor_BJT:PN2222A Q1
U 1 1 5DF7E400
P 4100 1900
F 0 "Q1" V 4350 1950 50  0000 L CNN
F 1 "PN2222A" V 4450 1700 50  0000 L CNN
F 2 "custom_footprints:TO-92-bigger" H 4300 1825 50  0001 L CIN
F 3 "http://www.fairchildsemi.com/ds/PN/PN2222A.pdf" H 4100 1900 50  0001 L CNN
	1    4100 1900
	0    -1   -1   0   
$EndComp
$Comp
L Device:R RQ1
U 1 1 5DF7EF1B
P 3350 2300
F 0 "RQ1" V 3557 2300 50  0000 C CNN
F 1 "1 kOhm" V 3466 2300 50  0000 C CNN
F 2 "Resistor_THT:R_Axial_DIN0207_L6.3mm_D2.5mm_P10.16mm_Horizontal" V 3280 2300 50  0001 C CNN
F 3 "~" H 3350 2300 50  0001 C CNN
	1    3350 2300
	0    -1   -1   0   
$EndComp
$Comp
L Device:R R_LS1
U 1 1 5DF88EC5
P 3150 1800
F 0 "R_LS1" V 3357 1800 50  0000 C CNN
F 1 "100 Ohm" V 3266 1800 50  0000 C CNN
F 2 "Resistor_THT:R_Axial_DIN0207_L6.3mm_D2.5mm_P10.16mm_Horizontal" V 3080 1800 50  0001 C CNN
F 3 "~" H 3150 1800 50  0001 C CNN
	1    3150 1800
	0    -1   -1   0   
$EndComp
Wire Wire Line
	3750 1800 3850 1800
$Comp
L Switch:SW_Push SW1
U 1 1 5DF8F417
P 4850 3300
F 0 "SW1" V 4900 3450 50  0000 L CNN
F 1 "SW" V 4800 3500 50  0000 L CNN
F 2 "custom_footprints:RND 210-00194" H 4850 3500 50  0001 C CNN
F 3 "~" H 4850 3500 50  0001 C CNN
	1    4850 3300
	0    -1   -1   0   
$EndComp
$Comp
L Device:D D1
U 1 1 5DF97D51
P 3700 2050
F 0 "D1" H 3650 2150 50  0000 L CNN
F 1 "D" H 3650 1950 50  0000 L CNN
F 2 "Diode_THT:D_A-405_P10.16mm_Horizontal" H 3700 2050 50  0001 C CNN
F 3 "~" H 3700 2050 50  0001 C CNN
	1    3700 2050
	1    0    0    -1  
$EndComp
Wire Wire Line
	3550 2050 3550 1800
Connection ~ 3550 1800
Wire Wire Line
	3550 1800 3650 1800
Wire Wire Line
	3850 2050 3850 1800
Connection ~ 3850 1800
Wire Wire Line
	3850 1800 3900 1800
Wire Wire Line
	5000 2950 5000 2700
$Comp
L Device:R_POT RV2
U 1 1 5DF9F135
P 5300 2950
F 0 "RV2" V 5100 2950 50  0000 C CNN
F 1 "0-25 kOhm" V 5200 2950 50  0000 C CNN
F 2 "custom_footprints:ACP 6-L" H 5300 2950 50  0001 C CNN
F 3 "~" H 5300 2950 50  0001 C CNN
	1    5300 2950
	1    0    0    -1  
$EndComp
NoConn ~ 5300 2800
$Comp
L Switch:SW_Push SW2
U 1 1 5DF9F13C
P 5300 3300
F 0 "SW2" V 5350 3450 50  0000 L CNN
F 1 "SW" V 5250 3500 50  0000 L CNN
F 2 "custom_footprints:RND 210-00194" H 5300 3500 50  0001 C CNN
F 3 "~" H 5300 3500 50  0001 C CNN
	1    5300 3300
	0    -1   -1   0   
$EndComp
Wire Wire Line
	5000 2700 5450 2700
$Comp
L Device:R_POT RV3
U 1 1 5DFA56E2
P 5750 2950
F 0 "RV3" V 5550 2950 50  0000 C CNN
F 1 "0-25 kOhm" V 5650 2950 50  0000 C CNN
F 2 "custom_footprints:ACP 6-L" H 5750 2950 50  0001 C CNN
F 3 "~" H 5750 2950 50  0001 C CNN
	1    5750 2950
	1    0    0    -1  
$EndComp
NoConn ~ 5750 2800
$Comp
L Switch:SW_Push SW3
U 1 1 5DFA56E9
P 5750 3300
F 0 "SW3" V 5800 3450 50  0000 L CNN
F 1 "SW" V 5700 3500 50  0000 L CNN
F 2 "custom_footprints:RND 210-00194" H 5750 3500 50  0001 C CNN
F 3 "~" H 5750 3500 50  0001 C CNN
	1    5750 3300
	0    -1   -1   0   
$EndComp
Wire Wire Line
	5900 2950 5900 2700
$Comp
L Device:R_POT RV4
U 1 1 5DFA56F1
P 6200 2950
F 0 "RV4" V 6000 2950 50  0000 C CNN
F 1 "0-25 kOhm" V 6084 2950 50  0000 C CNN
F 2 "custom_footprints:ACP 6-L" H 6200 2950 50  0001 C CNN
F 3 "~" H 6200 2950 50  0001 C CNN
	1    6200 2950
	1    0    0    -1  
$EndComp
NoConn ~ 6200 2800
$Comp
L Switch:SW_Push SW4
U 1 1 5DFA56F8
P 6200 3300
F 0 "SW4" V 6250 3450 50  0000 L CNN
F 1 "SW" V 6150 3500 50  0000 L CNN
F 2 "custom_footprints:RND 210-00194" H 6200 3500 50  0001 C CNN
F 3 "~" H 6200 3500 50  0001 C CNN
	1    6200 3300
	0    -1   -1   0   
$EndComp
Wire Wire Line
	6350 2950 6350 2700
$Comp
L Device:R_POT RV5
U 1 1 5DFA7094
P 6650 2950
F 0 "RV5" V 6450 2950 50  0000 C CNN
F 1 "0-25 kOhm" V 6534 2950 50  0000 C CNN
F 2 "custom_footprints:ACP 6-L" H 6650 2950 50  0001 C CNN
F 3 "~" H 6650 2950 50  0001 C CNN
	1    6650 2950
	1    0    0    -1  
$EndComp
NoConn ~ 6650 2800
$Comp
L Switch:SW_Push SW5
U 1 1 5DFA709B
P 6650 3300
F 0 "SW5" V 6700 3450 50  0000 L CNN
F 1 "SW" V 6600 3500 50  0000 L CNN
F 2 "custom_footprints:RND 210-00194" H 6650 3500 50  0001 C CNN
F 3 "~" H 6650 3500 50  0001 C CNN
	1    6650 3300
	0    -1   -1   0   
$EndComp
Wire Wire Line
	5900 2700 6350 2700
Connection ~ 5900 2700
Wire Wire Line
	6350 2700 6800 2700
Wire Wire Line
	6800 2700 6800 2950
Connection ~ 6350 2700
Wire Wire Line
	5450 2950 5450 2700
Connection ~ 5450 2700
Wire Wire Line
	5450 2700 5900 2700
Wire Wire Line
	4850 3500 5300 3500
Wire Wire Line
	5300 3500 5750 3500
Connection ~ 5300 3500
Wire Wire Line
	5750 3500 6200 3500
Connection ~ 5750 3500
Wire Wire Line
	6200 3500 6650 3500
Connection ~ 6200 3500
Wire Wire Line
	3500 2300 4100 2300
Wire Wire Line
	4100 2100 4100 2300
Connection ~ 5000 2700
Wire Wire Line
	4450 2700 5000 2700
Wire Wire Line
	4150 2700 4000 2700
Wire Wire Line
	4000 2700 4000 2500
Connection ~ 4000 2500
Wire Wire Line
	4000 2500 4150 2500
Connection ~ 4850 3500
Connection ~ 3500 3050
Wire Wire Line
	3500 3050 3500 3500
Wire Wire Line
	2700 2900 2700 3050
Wire Wire Line
	2850 3050 2700 3050
Wire Wire Line
	3500 3500 1500 3500
Wire Wire Line
	1500 3500 1500 2300
Wire Wire Line
	1500 2300 2200 2300
Wire Wire Line
	2700 3050 2700 3150
Wire Wire Line
	2700 1700 2700 1800
Wire Wire Line
	3300 1800 3550 1800
Wire Wire Line
	3000 1800 2700 1800
Connection ~ 2700 1800
Wire Wire Line
	2700 1800 2700 2100
Wire Wire Line
	3200 2500 4000 2500
Wire Wire Line
	3500 3500 4850 3500
Connection ~ 3500 3500
Wire Wire Line
	4300 1800 4600 1800
Wire Wire Line
	4600 1800 4600 2000
Wire Wire Line
	4450 2500 4600 2500
Wire Wire Line
	4600 2500 4600 2100
Connection ~ 2700 3050
$Comp
L power:GND #PWR0101
U 1 1 5DF7F930
P 4600 1700
F 0 "#PWR0101" H 4600 1450 50  0001 C CNN
F 1 "GND" H 4605 1527 50  0000 C CNN
F 2 "" H 4600 1700 50  0001 C CNN
F 3 "" H 4600 1700 50  0001 C CNN
	1    4600 1700
	-1   0    0    1   
$EndComp
Wire Wire Line
	4600 1700 4600 1800
Connection ~ 4600 1800
$Comp
L power:+9V #PWR0102
U 1 1 5DF81FC9
P 4800 2500
F 0 "#PWR0102" H 4800 2350 50  0001 C CNN
F 1 "+9V" H 4815 2673 50  0000 C CNN
F 2 "" H 4800 2500 50  0001 C CNN
F 3 "" H 4800 2500 50  0001 C CNN
	1    4800 2500
	0    1    1    0   
$EndComp
Wire Wire Line
	4600 2500 4800 2500
Connection ~ 4600 2500
$EndSCHEMATC
