G04 #@! TF.GenerationSoftware,KiCad,Pcbnew,(5.1.5)-3*
G04 #@! TF.CreationDate,2020-01-28T18:36:42+01:00*
G04 #@! TF.ProjectId,MiniSynth,4d696e69-5379-46e7-9468-2e6b69636164,rev?*
G04 #@! TF.SameCoordinates,Original*
G04 #@! TF.FileFunction,Profile,NP*
%FSLAX46Y46*%
G04 Gerber Fmt 4.6, Leading zero omitted, Abs format (unit mm)*
G04 Created by KiCad (PCBNEW (5.1.5)-3) date 2020-01-28 18:36:42*
%MOMM*%
%LPD*%
G04 APERTURE LIST*
%ADD10C,0.200000*%
G04 APERTURE END LIST*
D10*
X25400000Y-66040000D02*
X86360000Y-66040000D01*
X25400000Y-25400000D02*
X25400000Y-66040000D01*
X86360000Y-25400000D02*
X25400000Y-25400000D01*
X86360000Y-66040000D02*
X86360000Y-25400000D01*
M02*
