G04 #@! TF.GenerationSoftware,KiCad,Pcbnew,(5.1.5)-3*
G04 #@! TF.CreationDate,2020-01-28T18:36:42+01:00*
G04 #@! TF.ProjectId,MiniSynth,4d696e69-5379-46e7-9468-2e6b69636164,rev?*
G04 #@! TF.SameCoordinates,Original*
G04 #@! TF.FileFunction,Copper,L1,Top*
G04 #@! TF.FilePolarity,Positive*
%FSLAX46Y46*%
G04 Gerber Fmt 4.6, Leading zero omitted, Abs format (unit mm)*
G04 Created by KiCad (PCBNEW (5.1.5)-3) date 2020-01-28 18:36:42*
%MOMM*%
%LPD*%
G04 APERTURE LIST*
%ADD10O,2.000000X2.000000*%
%ADD11R,2.000000X2.000000*%
%ADD12C,2.500000*%
%ADD13C,2.000000*%
%ADD14R,3.000000X3.000000*%
%ADD15C,3.000000*%
G04 APERTURE END LIST*
D10*
X40640000Y-34290000D03*
X48260000Y-41910000D03*
X43180000Y-34290000D03*
X45720000Y-41910000D03*
X45720000Y-34290000D03*
X43180000Y-41910000D03*
X48260000Y-34290000D03*
D11*
X40640000Y-41910000D03*
D12*
X63540000Y-52030000D03*
X66040000Y-47030000D03*
X68540000Y-52030000D03*
X73700000Y-52030000D03*
X76200000Y-47030000D03*
X78700000Y-52030000D03*
X53380000Y-52030000D03*
X55880000Y-47030000D03*
X58380000Y-52030000D03*
X33060000Y-52030000D03*
X35560000Y-47030000D03*
X38060000Y-52030000D03*
X43220000Y-52030000D03*
X45720000Y-47030000D03*
X48220000Y-52030000D03*
D13*
X48260000Y-31670000D03*
X48260000Y-26670000D03*
X45720000Y-31670000D03*
X45720000Y-26670000D03*
D14*
X30480000Y-39370000D03*
D15*
X30480000Y-34290000D03*
X81280000Y-34290000D03*
D14*
X81280000Y-39370000D03*
D10*
X36830000Y-39370000D03*
D13*
X36830000Y-29210000D03*
D10*
X52070000Y-31750000D03*
D13*
X62230000Y-31750000D03*
D10*
X67310000Y-40640000D03*
D13*
X57150000Y-40640000D03*
D10*
X69850000Y-35560000D03*
D13*
X59690000Y-35560000D03*
D12*
X32310000Y-57440000D03*
X38810000Y-57440000D03*
X32310000Y-61940000D03*
X38810000Y-61940000D03*
X42470000Y-57440000D03*
X48970000Y-57440000D03*
X42470000Y-61940000D03*
X48970000Y-61940000D03*
X52630000Y-57440000D03*
X59130000Y-57440000D03*
X52630000Y-61940000D03*
X59130000Y-61940000D03*
X62790000Y-57440000D03*
X69290000Y-57440000D03*
X62790000Y-61940000D03*
X69290000Y-61940000D03*
X72950000Y-57440000D03*
X79450000Y-57440000D03*
X72950000Y-61940000D03*
X79450000Y-61940000D03*
D11*
X74930000Y-40640000D03*
D10*
X74930000Y-30480000D03*
D11*
X69350000Y-27710000D03*
D13*
X69350000Y-31210000D03*
X71850000Y-29480000D03*
M02*
